…
```
## See spec(...) for full column specifications.
```

```r
nh
```

```
## # A tibble: 5,000 x 32
##       id Gender   Age Race  Education MaritalStatus RelationshipSta…
##    <dbl> <chr>  <dbl> <chr> <chr>     <chr>         <chr>           
##  1 62163 male      14 Asian <NA>      <NA>          <NA>            
##  2 62172 female    43 Black High Sch… NeverMarried  Single          
##  3 62174 male      80 White College … Married       Committed       
##  4 62174 male      80 White College … Married       Committed       
##  5 62175 male       5 White <NA>      <NA>          <NA>            
##  6 62176 female    34 White College … Married       Committed       
##  7 62178 male      80 White High Sch… Widowed       Single          
##  8 62180 male      35 White College … Married       Committed       
##  9 62186 female    17 Black <NA>      <NA>          <NA>            
## 10 62190 female    15 Mexi… <NA>      <NA>          <NA>            
## # … with 4,990 more rows, and 25 more variables: Insured <chr>,
## #   Income <dbl>, Poverty <dbl>, HomeRooms <dbl>, HomeOwn <chr>,
## #   Work <chr>, Weight <dbl>, Height <dbl>, BMI <dbl>, Pulse <dbl>,
## #   BPSys <dbl>, BPDia <dbl>, Testosterone <dbl>, HDLChol <dbl>,
## #   TotChol <dbl>, Diabetes <chr>, DiabetesAge <dbl>, nPregnancies <dbl>,
## #   nBabies <dbl>, SleepHrsNight <dbl>, PhysActive <chr>,
## #   PhysActiveDays <dbl>, AlcoholDay <dbl>, AlcoholYear <dbl>,
## #   SmokingStatus <chr>
```
…
